Ergo Bike Wind Resistance
…
# Read in the XML files
tcx <-
    tibble(
        files = list.files(
            path = here('data'),
            pattern = '*.tcx',
            full.names = TRUE
        )
    ) %>%
    transmute(xml = map(files, ~read_xml(.x))) %>% 
    mutate(.id = 1:n())

print(tcx)

## # A tibble: 29 x 2
##    xml          .id
##    <list>     <int>
##  1 <xml_dcmn>     1
##  2 <xml_dcmn>     2
##  3 <xml_dcmn>     3
##  4 <xml_dcmn>     4
##  5 <xml_dcmn>     5
##  6 <xml_dcmn>     6
##  7 <xml_dcmn>     7
##  8 <xml_dcmn>     8
##  9 <xml_dcmn>     9
## 10 <xml_dcmn>    10
## # … with 19 more rows
…
