…
```r
ergo_data <-
    tcx %>% 
    mutate(tcx = map(xml, ~pull_tcx_data(.x))) %>% 
    unnest(cols = 'tcx') %>% 
    select(-xml)
print(ergo_data)
```

```
## # A tibble: 46,338 x 4
##      .id datetime            cadence power
##    <int> <dttm>                <int> <int>
##  1     1 2020-06-14 04:21:00      64   156
##  2     1 2020-06-14 04:21:01      64   162
##  3     1 2020-06-14 04:21:02      63   154
##  4     1 2020-06-14 04:21:03      65   178
##  5     1 2020-06-14 04:21:04      66   178
##  6     1 2020-06-14 04:21:05      67   175
##  7     1 2020-06-14 04:21:06      67   173
##  8     1 2020-06-14 04:21:07      66   181
##  9     1 2020-06-14 04:21:08      66   184
## 10     1 2020-06-14 04:21:09      66   183
## # … with 46,328 more rows
```
…
